---
http_interactions:
- request:
    method: get
    uri: https://maps.googleapis.com/maps/api/geocode/json?address=Denver,%20CO&key=<GEOCODE_KEY>
    body:
      encoding: US-ASCII
      string: ''
    headers:
      User-Agent:
      - Faraday v0.15.4
      Accept-Encoding:
      - gzip;q=1.0,deflate;q=0.6,identity;q=0.3
      Accept:
      - "*/*"
  response:
    status:
      code: 200
      message: OK
    headers:
      Content-Type:
      - application/json; charset=UTF-8
      Date:
      - Sat, 23 Feb 2019 21:21:49 GMT
      Expires:
      - Sun, 24 Feb 2019 21:21:49 GMT
      Cache-Control:
      - public, max-age=86400
      Vary:
      - Accept-Language
      Access-Control-Allow-Origin:
      - "*"
      Server:
      - mafe
      Content-Length:
      - '448'
      X-Xss-Protection:
      - 1; mode=block
      X-Frame-Options:
      - SAMEORIGIN
      Server-Timing:
      - gfet4t7; dur=36
      Alt-Svc:
      - quic=":443"; ma=2592000; v="44,43,39"
    body:
      encoding: ASCII-8BIT
      string: |
        {
           "results" : [
              {
                 "address_components" : [
                    {
                       "long_name" : "Denver",
                       "short_name" : "Denver",
                       "types" : [ "locality", "political" ]
                    },
                    {
                       "long_name" : "Denver County",
                       "short_name" : "Denver County",
                       "types" : [ "administrative_area_level_2", "political" ]
                    },
                    {
                       "long_name" : "Colorado",
                       "short_name" : "CO",
                       "types" : [ "administrative_area_level_1", "political" ]
                    },
                    {
                       "long_name" : "United States",
                       "short_name" : "US",
                       "types" : [ "country", "political" ]
                    }
                 ],
                 "formatted_address" : "Denver, CO, USA",
                 "geometry" : {
                    "bounds" : {
                       "northeast" : {
                          "lat" : 39.91424689999999,
                          "lng" : -104.6002959
                       },
                       "southwest" : {
                          "lat" : 39.614431,
                          "lng" : -105.109927
                       }
                    },
                    "location" : {
                       "lat" : 39.7392358,
                       "lng" : -104.990251
                    },
                    "location_type" : "APPROXIMATE",
                    "viewport" : {
                       "northeast" : {
                          "lat" : 39.91424689999999,
                          "lng" : -104.6002959
                       },
                       "southwest" : {
                          "lat" : 39.614431,
                          "lng" : -105.109927
                       }
                    }
                 },
                 "place_id" : "ChIJzxcfI6qAa4cR1jaKJ_j0jhE",
                 "types" : [ "locality", "political" ]
              }
           ],
           "status" : "OK"
        }
    http_version: 
  recorded_at: Sat, 23 Feb 2019 21:21:49 GMT
- request:
    method: get
    uri: https://api.flickr.com/services/rest/?api_key=fed8bf21455898ec36dad987d4c10755&format=json&lat=39.7392358&lon=-104.990251&method=flickr.photos.getRecent&nojsoncallback=true&safe_search=1&tags=parks
    body:
      encoding: US-ASCII
      string: ''
    headers:
      User-Agent:
      - Faraday v0.15.4
      Accept-Encoding:
      - gzip;q=1.0,deflate;q=0.6,identity;q=0.3
      Accept:
      - "*/*"
  response:
    status:
      code: 200
      message: OK
    headers:
      Date:
      - Sat, 23 Feb 2019 21:21:50 GMT
      Content-Type:
      - application/json
      Content-Length:
      - '4702'
      P3p:
      - policyref="https://policies.yahoo.com/w3c/p3p.xml", CP="CAO DSP COR CUR ADM
        DEV TAI PSA PSD IVAi IVDi CONi TELo OTPi OUR DELi SAMi OTRi UNRi PUBi IND
        PHY ONL UNI PUR FIN COM NAV INT DEM CNT STA POL HEA PRE LOC GOV"
      Cache-Control:
      - private
      X-Served-By:
      - www330.flickr.bf1.yahoo.com
      X-Frame-Options:
      - SAMEORIGIN
      Vary:
      - Accept-Encoding
      Age:
      - '2'
      Via:
      - http/1.1 fts111.flickr.bf1.yahoo.com (ApacheTrafficServer [cMsSf ]), http/1.1
        e1.ycpi.dnb.yahoo.com (ApacheTrafficServer [cMsSf ])
      Server:
      - ATS
      Referrer-Policy:
      - no-referrer-when-downgrade
      Connection:
      - keep-alive
      Strict-Transport-Security:
      - max-age=15552000
      Expect-Ct:
      - max-age=31536000, report-uri="http://csp.yahoo.com/beacon/csp?src=yahoocom-expect-ct-report-only"
      X-Xss-Protection:
      - 1; mode=block
      X-Content-Type-Options:
      - nosniff
      Public-Key-Pins-Report-Only:
      - max-age=2592000; pin-sha256="2fRAUXyxl4A1/XHrKNBmc8bTkzA7y4FB/GLJuNAzCqY=";
        pin-sha256="I/Lt/z7ekCWanjD0Cvj5EqXls2lOaThEA0H2Bg4BT/o="; pin-sha256="Wd8xe/qfTwq3ylFNd3IpaqLHZbh2ZNCLluVzmeNkcpw=";
        pin-sha256="WoiWRyIOVNa9ihaBciRSC7XHjliYS9VwUGOIud4PB18="; pin-sha256="i7WTqTvh0OioIruIfFR4kMPnBqrS2rdiVPl/s2uC/CY=";
        pin-sha256="r/mIkG3eEpVdm+u/ko/cwxzOMo1bk4TyHIlByibiA5E="; pin-sha256="uUwZgwDOxcBXrQcntwu+kYFpkiVkOaezL0WYEZ3anJc=";
        pin-sha256="dolnbtzEBnELx/9lOEQ22e6OZO/QNb6VSSX2XHA3E7A="; includeSubdomains;
        report-uri="http://csp.yahoo.com/beacon/csp?src=yahoocom-hpkp-report-only"
    body:
      encoding: ASCII-8BIT
      string: '{"photos":{"page":1,"pages":10,"perpage":100,"total":1000,"photo":[{"id":"32247793677","owner":"141721137@N04","secret":"0a9a2601a2","server":"7926","farm":8,"title":"Pompeii,
        Italy","ispublic":1,"isfriend":0,"isfamily":0},{"id":"32247795167","owner":"14249179@N02","secret":"e42771ae0b","server":"7808","farm":8,"title":"20190222-_MG_5787.jpg","ispublic":1,"isfriend":0,"isfamily":0},{"id":"32247795477","owner":"49356928@N05","secret":"7d02b07dc4","server":"7874","farm":8,"title":"Amor
        em forma de foto","ispublic":1,"isfriend":0,"isfamily":0},{"id":"32247798137","owner":"33877806@N08","secret":"1c3dde5623","server":"7864","farm":8,"title":"Golden
        Eagle","ispublic":1,"isfriend":0,"isfamily":0},{"id":"32247799967","owner":"32842764@N05","secret":"a70a70b1a0","server":"7861","farm":8,"title":"","ispublic":1,"isfriend":0,"isfamily":0},{"id":"32247801027","owner":"128244384@N05","secret":"5b7d0ebfd2","server":"7893","farm":8,"title":"IMG_20190223_221456","ispublic":1,"isfriend":0,"isfamily":0},{"id":"32247803387","owner":"94460580@N06","secret":"cd2b9d4250","server":"7862","farm":8,"title":"Shoebright","ispublic":1,"isfriend":0,"isfamily":0},{"id":"32247805007","owner":"168413716@N06","secret":"2b1e2ee5c0","server":"7919","farm":8,"title":"Hairy
        Pussy","ispublic":1,"isfriend":0,"isfamily":0},{"id":"32247805067","owner":"152540735@N03","secret":"6c495ebbd9","server":"7910","farm":8,"title":"Mortgage
        Arrears in Crathes #Mortgage #Arrearage #Crathes https:\/\/t.co\/eJ8Em6CRJE","ispublic":1,"isfriend":0,"isfamily":0},{"id":"32247805927","owner":"155929631@N02","secret":"47cf1b4d96","server":"7926","farm":8,"title":"Homepage","ispublic":1,"isfriend":0,"isfamily":0},{"id":"32247807157","owner":"57552508@N06","secret":"3e6c77aa56","server":"7915","farm":8,"title":"2019-02-23_08-36-12","ispublic":1,"isfriend":0,"isfamily":0},{"id":"32247809447","owner":"25967945@N03","secret":"2ae9528011","server":"7900","farm":8,"title":"Open
        Bar (Ocasio, Luis)","ispublic":1,"isfriend":0,"isfamily":0},{"id":"32247810717","owner":"41810403@N08","secret":"6fa7abeb82","server":"7818","farm":8,"title":"L1000233.jpg","ispublic":1,"isfriend":0,"isfamily":0},{"id":"32247811207","owner":"35101596@N07","secret":"51eb42e526","server":"7819","farm":8,"title":"DSC_9873.jpg","ispublic":1,"isfriend":0,"isfamily":0},{"id":"33314365518","owner":"156235078@N06","secret":"f0781a0c28","server":"7821","farm":8,"title":"IMG_20190223_211326","ispublic":1,"isfriend":0,"isfamily":0},{"id":"33314365708","owner":"161273544@N05","secret":"e0b6ec4ab8","server":"7816","farm":8,"title":"Paitria
        Fort Lauderdale Model Hip-Hop Recording Artist","ispublic":1,"isfriend":0,"isfamily":0},{"id":"33314370618","owner":"158330564@N06","secret":"80f2477504","server":"7834","farm":8,"title":"I
        have a picture at 2019-02-23 15:18:05","ispublic":1,"isfriend":0,"isfamily":0},{"id":"33314370758","owner":"34245669@N03","secret":"18df13c26c","server":"7840","farm":8,"title":"historieta
        607","ispublic":1,"isfriend":0,"isfamily":0},{"id":"33314370958","owner":"88902971@N02","secret":"105436456b","server":"7885","farm":8,"title":"DSC_1681","ispublic":1,"isfriend":0,"isfamily":0},{"id":"33314372248","owner":"166833765@N07","secret":"2cd035be1b","server":"7909","farm":8,"title":"","ispublic":1,"isfriend":0,"isfamily":0},{"id":"33314372388","owner":"156788547@N06","secret":"b1e197d86d","server":"7867","farm":8,"title":"170
        @ Crestline","ispublic":1,"isfriend":0,"isfamily":0},{"id":"33314373188","owner":"162348135@N08","secret":"afc133a41e","server":"7865","farm":8,"title":"room","ispublic":1,"isfriend":0,"isfamily":0},{"id":"33314375148","owner":"90152771@N03","secret":"f19c2acd7c","server":"7874","farm":8,"title":"Birdwatching","ispublic":1,"isfriend":0,"isfamily":0},{"id":"33314375868","owner":"93837939@N06","secret":"98075111a4","server":"7924","farm":8,"title":"20190205_201557","ispublic":1,"isfriend":0,"isfamily":0},{"id":"33314378138","owner":"143053975@N02","secret":"d0a2581f28","server":"7892","farm":8,"title":"Buckskin
        Joe''s, Period Actors","ispublic":1,"isfriend":0,"isfamily":0},{"id":"33314379338","owner":"51508615@N00","secret":"7b9de95789","server":"7820","farm":8,"title":"White
        Turf International","ispublic":1,"isfriend":0,"isfamily":0},{"id":"33314379898","owner":"151841491@N05","secret":"48b0d76ec0","server":"7800","farm":8,"title":"fswanita.8e54b771.ApparelBusinessMean_@blogger.com
        Uniforms https:\/\/ift.tt\/2SikwuY","ispublic":1,"isfriend":0,"isfamily":0},{"id":"33314382558","owner":"62839059@N03","secret":"52340c4413","server":"7837","farm":8,"title":"Pollen
        ,\u00e9tamines , crocus","ispublic":1,"isfriend":0,"isfamily":0},{"id":"33314387018","owner":"14817949@N08","secret":"ccd82523db","server":"7921","farm":8,"title":"Opel
        Agila","ispublic":1,"isfriend":0,"isfamily":0},{"id":"33314389538","owner":"129336463@N07","secret":"bffa7c4349","server":"7897","farm":8,"title":"Where
        is my mind...","ispublic":1,"isfriend":0,"isfamily":0},{"id":"33314392848","owner":"98796867@N07","secret":"6d947fd57d","server":"7852","farm":8,"title":"_MG_8901.jpg","ispublic":1,"isfriend":0,"isfamily":0},{"id":"40224945083","owner":"97404090@N06","secret":"43bc9911a7","server":"7848","farm":8,"title":"","ispublic":1,"isfriend":0,"isfamily":0},{"id":"40224958723","owner":"105486113@N02","secret":"0d6249d2dc","server":"7853","farm":8,"title":"\u062f\u0627\u0646\u0644\u0648\u062f
        \u06a9\u062a\u0627\u0628: \u0642\u0627\u0646\u0648\u0646\u060c \u0642\u0627\u0646\u0648\u0646\u06af\u0630\u0627\u0631\u06cc
        \u0648 \u0622\u0632\u0627\u062f\u06cc \u0627\u062b\u0631 \u0641\u0631\u06cc\u062f\u0631\u06cc\u0634
        \u0641\u0648\u0646 \u0647\u0627\u06cc\u06a9","ispublic":1,"isfriend":0,"isfamily":0},{"id":"40224960613","owner":"27974644@N07","secret":"502c576870","server":"7841","farm":8,"title":"Seaton
        Burn 1 Prudhoe Y.C Seniors 5","ispublic":1,"isfriend":0,"isfamily":0},{"id":"40224960943","owner":"10194419@N00","secret":"a7a1f26177","server":"7902","farm":8,"title":"20190223153031390ch01","ispublic":1,"isfriend":0,"isfamily":0},{"id":"40224961023","owner":"7834205@N06","secret":"82dc9aca18","server":"7916","farm":8,"title":"Blue
        Mist in the Early Evening","ispublic":1,"isfriend":0,"isfamily":0},{"id":"40224961083","owner":"69642507@N07","secret":"75b44083a4","server":"7910","farm":8,"title":"Valentine''s
        Day \/\/ Valentinstag \/\/ Love Quote \/\/ Partner Shirts \/\/ Big Spoon,
        Little Spoon \/\/ Geschenkidee \/\/ Geschenk f\u00fcr Sie \/\/ Geschenk f\u00fcr
        Ihn \/\/ by DeinDesign.","ispublic":1,"isfriend":0,"isfamily":0},{"id":"40224962273","owner":"122135693@N04","secret":"67a6e4b3ec","server":"7837","farm":8,"title":"","ispublic":1,"isfriend":0,"isfamily":0},{"id":"40224962593","owner":"161502049@N02","secret":"fdeebb1636","server":"7869","farm":8,"title":"Online
        earn money best app download now","ispublic":1,"isfriend":0,"isfamily":0},{"id":"40224964493","owner":"130469238@N08","secret":"893a0bfe42","server":"7843","farm":8,"title":"Schw\u00e4bische
        Alb, bei Reussenstein","ispublic":1,"isfriend":0,"isfamily":0},{"id":"40224965533","owner":"97234442@N06","secret":"d0eeb5651a","server":"7896","farm":8,"title":"DSC_7126.jpg","ispublic":1,"isfriend":0,"isfamily":0},{"id":"40224966083","owner":"151639852@N07","secret":"01d7d82761","server":"7859","farm":8,"title":"2019-02-13_08-43-22_ILCE-6500_DSC05267","ispublic":1,"isfriend":0,"isfamily":0},{"id":"40224969393","owner":"12842060@N06","secret":"2de90f76ec","server":"7832","farm":8,"title":"","ispublic":1,"isfriend":0,"isfamily":0},{"id":"40224970093","owner":"96789674@N05","secret":"352fe4136e","server":"7876","farm":8,"title":"Threshing
        in Tinkyu","ispublic":1,"isfriend":0,"isfamily":0},{"id":"40224970113","owner":"165941558@N08","secret":"17a31d6214","server":"7884","farm":8,"title":"02.21.2019
        Adventure","ispublic":1,"isfriend":0,"isfamily":0},{"id":"40224970203","owner":"119766825@N05","secret":"6f8cbb9509","server":"7893","farm":8,"title":"","ispublic":1,"isfriend":0,"isfamily":0},{"id":"40224971083","owner":"168556447@N08","secret":"95a5863bfa","server":"7893","farm":8,"title":"Arequipa","ispublic":1,"isfriend":0,"isfamily":0},{"id":"40224972163","owner":"168529826@N06","secret":"3376985b28","server":"7919","farm":8,"title":"2019-02-23_04-21-39","ispublic":1,"isfriend":0,"isfamily":0},{"id":"46275472385","owner":"156570301@N05","secret":"f6d7fb2ea6","server":"7872","farm":8,"title":"Domingo
        \u00e9 dia de Feira! E se for Org\u00e2nica, ainda melhor! #feiraorganica
        #saude #espa\u00e7oadventistadacolina","ispublic":1,"isfriend":0,"isfamily":0},{"id":"46275477315","owner":"157239102@N05","secret":"f479eeefe6","server":"7869","farm":8,"title":"Record
        by Always E-mail[Image], 2016-01-20 23:59:43","ispublic":1,"isfriend":0,"isfamily":0},{"id":"46275479055","owner":"53446473@N00","secret":"195a10df06","server":"7925","farm":8,"title":"Camera
        fun","ispublic":1,"isfriend":0,"isfamily":0},{"id":"46275481235","owner":"169978185@N05","secret":"d6f5369e65","server":"7866","farm":8,"title":"Size
        5.5 But fits a 6 Limited edition Nike hypersweeps wrestling shoes. Offer a
        price","ispublic":1,"isfriend":0,"isfamily":0},{"id":"46275484515","owner":"44549902@N00","secret":"d635b717ab","server":"7827","farm":8,"title":"Chao
        Phraya River 14","ispublic":1,"isfriend":0,"isfamily":0},{"id":"46275486675","owner":"150228206@N08","secret":"638a5119fe","server":"7926","farm":8,"title":"Shrewsbury","ispublic":1,"isfriend":0,"isfamily":0},{"id":"46275497525","owner":"151898083@N02","secret":"cb1ffda3c4","server":"7918","farm":8,"title":"1550956674765","ispublic":1,"isfriend":0,"isfamily":0},{"id":"46275502035","owner":"144787717@N05","secret":"94600b440a","server":"7817","farm":8,"title":"Bayilik
        Veren Cafeler 2019","ispublic":1,"isfriend":0,"isfamily":0},{"id":"46275502105","owner":"153865510@N05","secret":"a380b1ea66","server":"7876","farm":8,"title":"Desaparecer","ispublic":1,"isfriend":0,"isfamily":0},{"id":"46275502705","owner":"168209848@N08","secret":"f0d966990d","server":"7885","farm":8,"title":"LRM_EXPORT_723866954437879_20190223_151713248","ispublic":1,"isfriend":0,"isfamily":0},{"id":"46275504355","owner":"147120460@N06","secret":"5c048b8c94","server":"7813","farm":8,"title":"Grammy
        \ud83d\udc75","ispublic":1,"isfriend":0,"isfamily":0},{"id":"46466132464","owner":"94660571@N02","secret":"5e80cab642","server":"7835","farm":8,"title":"Cleaning
        & Polishing","ispublic":1,"isfriend":0,"isfamily":0},{"id":"46466144574","owner":"40805157@N05","secret":"9db920e5f4","server":"7818","farm":8,"title":"_IGP7969.jpg","ispublic":1,"isfriend":0,"isfamily":0},{"id":"46466146684","owner":"165228898@N03","secret":"784d57fea7","server":"7914","farm":8,"title":"20190221_201223","ispublic":1,"isfriend":0,"isfamily":0},{"id":"46466148744","owner":"38060618@N04","secret":"8cb93cae77","server":"7872","farm":8,"title":"","ispublic":1,"isfriend":0,"isfamily":0},{"id":"46466150294","owner":"164062528@N03","secret":"f3e895d682","server":"7877","farm":8,"title":"Filme
        #film #grabando","ispublic":1,"isfriend":0,"isfamily":0},{"id":"46466151754","owner":"164318227@N06","secret":"09bf0a100f","server":"7827","farm":8,"title":"MAGICAL
        FUN","ispublic":1,"isfriend":0,"isfamily":0},{"id":"46466152114","owner":"13972873@N08","secret":"096d504075","server":"7810","farm":8,"title":"IMG_20190223_153353","ispublic":1,"isfriend":0,"isfamily":0},{"id":"46466154284","owner":"51398659@N06","secret":"8a57d189ff","server":"7877","farm":8,"title":"Leaving","ispublic":1,"isfriend":0,"isfamily":0},{"id":"46466157854","owner":"158286348@N03","secret":"415cd69650","server":"7804","farm":8,"title":"A
        Stroll on the Beach","ispublic":1,"isfriend":0,"isfamily":0},{"id":"46466158544","owner":"54700991@N08","secret":"3eacf80d4b","server":"7907","farm":8,"title":"2019-02-23_09-20-53","ispublic":1,"isfriend":0,"isfamily":0},{"id":"46466159324","owner":"130545390@N02","secret":"cc84fabfb1","server":"7819","farm":8,"title":"rihanna","ispublic":1,"isfriend":0,"isfamily":0},{"id":"46466163344","owner":"97102756@N07","secret":"5206becc63","server":"7859","farm":8,"title":"E-2019-02-24-0620_f","ispublic":1,"isfriend":0,"isfamily":0},{"id":"46466163364","owner":"19363422@N02","secret":"0a4e56fedb","server":"7902","farm":8,"title":"IMG_0161.jpg","ispublic":1,"isfriend":0,"isfamily":0},{"id":"46466163554","owner":"146571368@N05","secret":"c4517f6cfc","server":"7909","farm":8,"title":"Self-
        Awareness! #selfawareness","ispublic":1,"isfriend":0,"isfamily":0},{"id":"46466163794","owner":"30193643@N05","secret":"de70083990","server":"7891","farm":8,"title":"P9201169","ispublic":1,"isfriend":0,"isfamily":0},{"id":"46466164514","owner":"7788370@N03","secret":"d0a46c0582","server":"7894","farm":8,"title":"IMG_1238","ispublic":1,"isfriend":0,"isfamily":0},{"id":"47137717942","owner":"145346790@N08","secret":"77bf9cc7ea","server":"7901","farm":8,"title":"Ass","ispublic":1,"isfriend":0,"isfamily":0},{"id":"47137719482","owner":"64943649@N07","secret":"4f15e306f9","server":"7846","farm":8,"title":"Marie_The-Maiden-Warrior","ispublic":1,"isfriend":0,"isfamily":0},{"id":"47137723922","owner":"60581498@N06","secret":"4ab7d4dfe2","server":"7815","farm":8,"title":"Once
        upon a time","ispublic":1,"isfriend":0,"isfamily":0},{"id":"47137729232","owner":"162181005@N08","secret":"6085909654","server":"7850","farm":8,"title":"Infographics
        : How Non-Techies Can Find the Right Tech Talent #infographic #Career #Hiring
        #Tec...","ispublic":1,"isfriend":0,"isfamily":0},{"id":"47137730012","owner":"169901293@N02","secret":"b0b6fcfb4a","server":"7850","farm":8,"title":"foursome","ispublic":1,"isfriend":0,"isfamily":0},{"id":"47137733662","owner":"54309311@N00","secret":"897b825fc1","server":"7853","farm":8,"title":"everyday
        estate sale still . makes all better . . . . . #flickr #colorcolourlovers
        #abmlifeiscolorful #abmlifeishappy #acolorstory #hottoddy #dscolor #dscolour
        #colorofinstagram #estatesaleexterior #estatesalelocation #estatesalestill
        #estatesaleadventure","ispublic":1,"isfriend":0,"isfamily":0},{"id":"47137741572","owner":"107629226@N08","secret":"116cd2d70e","server":"7872","farm":8,"title":"","ispublic":1,"isfriend":0,"isfamily":0},{"id":"47137744102","owner":"7271873@N04","secret":"6a395c5d33","server":"7884","farm":8,"title":"#brisbaneriver
        #brisbaneskyline","ispublic":1,"isfriend":0,"isfamily":0},{"id":"47137746412","owner":"164252541@N07","secret":"9a41a9671c","server":"7919","farm":8,"title":"received_10212519981020524","ispublic":1,"isfriend":0,"isfamily":0},{"id":"47137748232","owner":"159105161@N04","secret":"17d06c28df","server":"7826","farm":8,"title":"Wie
        du Kokos\u00f6l und Natron mischst f\u00fcr eine unglaubliche Gesichtsreinigung","ispublic":1,"isfriend":0,"isfamily":0},{"id":"47189680731","owner":"149088329@N02","secret":"5f825394a6","server":"7809","farm":8,"title":"","ispublic":1,"isfriend":0,"isfamily":0},{"id":"47189682331","owner":"157219304@N08","secret":"db89fcde7f","server":"7862","farm":8,"title":"debauche","ispublic":1,"isfriend":0,"isfamily":0},{"id":"47189685051","owner":"110248907@N03","secret":"8bf09cda6c","server":"7830","farm":8,"title":"Heading
        out on this Beautiful Saturday #LivingLife","ispublic":1,"isfriend":0,"isfamily":0},{"id":"47189686241","owner":"140346801@N03","secret":"8332617f93","server":"7898","farm":8,"title":"From
        Internet Camera Manasquan (B0:C5:54:26:AC:2E), 2019\/02\/23 16:18:12","ispublic":1,"isfriend":0,"isfamily":0},{"id":"47189689221","owner":"58769606@N00","secret":"7a14b2973a","server":"7915","farm":8,"title":"Carnaval
        de Malaga","ispublic":1,"isfriend":0,"isfamily":0},{"id":"47189690691","owner":"16801881@N05","secret":"fbb9757bff","server":"7846","farm":8,"title":"Oakshaw
        Lane, Paisley","ispublic":1,"isfriend":0,"isfamily":0},{"id":"47189690721","owner":"34163089@N03","secret":"39eebaa8a4","server":"7849","farm":8,"title":"DSCF3095.jpg","ispublic":1,"isfriend":0,"isfamily":0},{"id":"47189691861","owner":"78803299@N04","secret":"93f203638d","server":"7858","farm":8,"title":"Repost
        from @instereorecords - @wearehighlow - Album ''Skeletons'' available on Vinyl\/CD
        and all streaming platforms! Available from: www.instereorecords.co.uk and
        instereorecords.bandcamp.com #grunge #lofirock #fuzz #skeletons #vinyl #newwave
        #alternativer","ispublic":1,"isfriend":0,"isfamily":0},{"id":"47189695461","owner":"128776789@N07","secret":"9ff899546d","server":"7812","farm":8,"title":"Br\u00fcllaffe","ispublic":1,"isfriend":0,"isfamily":0},{"id":"47189699281","owner":"160117079@N02","secret":"d21d393fe4","server":"7910","farm":8,"title":"","ispublic":1,"isfriend":0,"isfamily":0},{"id":"47189700131","owner":"155634665@N07","secret":"12979a4274","server":"7860","farm":8,"title":"Trae
        Crawford Durag model","ispublic":1,"isfriend":0,"isfamily":0},{"id":"47189703421","owner":"98719622@N07","secret":"0c9087abff","server":"7901","farm":8,"title":"DSC00759-Editar.jpg","ispublic":1,"isfriend":0,"isfamily":0},{"id":"47189708131","owner":"130046204@N03","secret":"f7054ea4cc","server":"7813","farm":8,"title":"Norte
        Grande - S\u00e3o Jorge","ispublic":1,"isfriend":0,"isfamily":0},{"id":"47189714221","owner":"91367280@N02","secret":"0509774d5d","server":"7850","farm":8,"title":".reach.","ispublic":1,"isfriend":0,"isfamily":0},{"id":"47189714431","owner":"133194053@N04","secret":"07eec3b1fe","server":"7815","farm":8,"title":"BRUT","ispublic":1,"isfriend":0,"isfamily":0}]},"stat":"ok"}'
    http_version: 
  recorded_at: Sat, 23 Feb 2019 21:21:49 GMT
recorded_with: VCR 4.0.0
